<svg width="200" height="60" viewBox="0 0 200 60" fill="none" xmlns="http://www.w3.org/2000/svg">
<g clip-path="url(#clip0_1231_2558)">
<path d="M136 0.5H18.365C8.14014 0.5 0 8.71135 0 18.9013V59.1666H117.635C127.76 59.1666 136 51.0542 136 40.8642V0.5Z" fill="#7AB929"/>
<path d="M42.1084 18.8984H42.0084C40.4087 18.8984 38.9089 19.2984 37.5091 19.9983C37.0091 19.2984 36.2092 18.8984 35.2094 18.8984C34.2095 18.8984 33.4096 19.2984 32.9097 19.9983C31.5099 19.2984 30.0101 18.8984 28.4103 18.8984H28.2104C25.5107 18.8984 23.2111 19.7983 21.3113 21.5981C19.4116 23.3978 18.5117 25.5975 18.5117 28.0971V31.9966C18.5117 34.5962 19.4116 36.6959 21.3113 38.4957C23.2111 40.2954 25.5107 41.1953 28.2104 41.1953H28.4103C29.8101 41.1953 31.11 40.8954 32.4098 40.3954V42.2952C32.4098 42.9951 32.7097 43.695 33.2097 44.2949C33.7096 44.7948 34.4095 45.0948 35.2094 45.0948C35.9093 45.0948 36.6092 44.8948 37.1091 44.3949C37.609 43.8949 38.009 43.395 38.009 42.7951C38.009 42.5951 38.009 42.4951 38.009 42.2952V40.4954C39.2088 40.9953 40.6086 41.2953 42.0084 41.2953H42.2084C44.908 41.2953 47.2077 40.3954 49.1074 38.5957C51.0072 36.7959 51.907 34.5962 51.907 32.0966V28.1971C51.907 25.5975 51.0072 23.4978 49.1074 21.698C47.1077 19.7983 44.808 18.8984 42.1084 18.8984ZM42.1084 35.7961H42.0084C40.9086 35.7961 40.0087 35.3961 39.2088 34.6962C38.4089 33.9963 38.009 33.0964 38.009 31.9966V28.0971C38.009 26.9973 38.4089 26.1974 39.2088 25.3975C40.0087 24.5976 40.9086 24.2977 42.0084 24.2977H42.2084C43.3082 24.2977 44.2081 24.6976 45.008 25.3975C45.8079 26.0974 46.2078 26.9973 46.2078 28.0971V31.9966C46.2078 33.0964 45.8079 33.8963 45.008 34.6962C44.2081 35.3961 43.3082 35.7961 42.1084 35.7961ZM28.3103 35.7961H28.1104C27.0105 35.7961 26.1107 35.3961 25.3108 34.6962C24.5109 33.9963 24.1109 33.0964 24.1109 31.9966V28.0971C24.1109 26.9973 24.5109 26.1974 25.3108 25.3975C26.1107 24.6976 27.0105 24.2977 28.1104 24.2977H28.3103C29.4102 24.2977 30.3101 24.6976 31.11 25.3975C31.9098 26.0974 32.3098 26.9973 32.3098 28.0971V31.9966C32.3098 33.0964 31.9098 33.8963 31.11 34.6962C30.3101 35.3961 29.4102 35.7961 28.3103 35.7961Z" fill="white"/>
<path d="M64.006 18.8984H63.806C61.0064 18.8984 58.6067 19.7983 56.607 21.5981C54.6073 23.3978 53.6074 25.5975 53.6074 28.0971V31.9966C53.6074 34.5962 54.6073 36.6959 56.607 38.4957C58.6067 40.2954 61.0064 41.1953 63.806 41.1953H64.006C66.8056 41.1953 69.2052 40.2954 71.205 38.4957C73.2047 36.6959 74.2045 34.4963 74.2045 31.9966V28.0971C74.2045 25.4975 73.2047 23.3978 71.205 21.5981C69.2052 19.7983 66.7056 18.8984 64.006 18.8984ZM64.006 35.7961H63.806C62.6062 35.7961 61.7063 35.3961 60.9064 34.6962C60.1065 33.9963 59.7066 33.0964 59.7066 31.9966V28.0971C59.7066 26.9973 60.1065 26.1974 60.9064 25.3975C61.7063 24.6976 62.7061 24.2977 63.806 24.2977H64.006C65.2058 24.2977 66.1057 24.6976 66.9056 25.3975C67.7055 26.0974 68.1054 26.9973 68.1054 28.0971V31.9966C68.1054 32.9965 67.7055 33.8963 66.9056 34.6962C66.1057 35.3961 65.1058 35.7961 64.006 35.7961Z" fill="white"/>
<path d="M86.2029 18.8984H86.0029C84.3031 18.8984 82.7033 19.2984 81.3035 19.9983C80.8036 19.2984 79.9037 18.8984 78.9039 18.8984C78.104 18.8984 77.3041 19.1984 76.8042 19.6983C76.2043 20.1983 75.9043 20.8982 75.9043 21.5981V42.2952C75.9043 42.9951 76.2043 43.695 76.8042 44.2949C77.4041 44.7948 78.104 45.0948 78.9039 45.0948C79.7038 45.0948 80.4037 44.8948 81.0036 44.2949C81.6035 43.795 81.9035 43.0951 81.9035 42.3951V40.4954C83.2033 40.9953 84.6031 41.2953 86.0029 41.2953H86.2029C89.0025 41.2953 91.4021 40.3954 93.4018 38.5957C95.4016 36.7959 96.4014 34.5962 96.4014 32.0966V28.1971C96.4014 25.5975 95.4016 23.4978 93.4018 21.698C91.4021 19.7983 88.9025 18.8984 86.2029 18.8984ZM86.2029 35.7961H86.0029C84.8031 35.7961 83.9032 35.3961 83.1033 34.6962C82.3034 33.9963 81.9035 33.0964 81.9035 31.9966V28.0971C81.9035 26.9973 82.3034 26.1974 83.1033 25.3975C83.9032 24.6976 84.903 24.2977 86.0029 24.2977H86.2029C87.4027 24.2977 88.3026 24.6976 89.1024 25.3975C89.9023 26.0974 90.3023 26.9973 90.3023 28.0971V31.9966C90.3023 32.9965 89.9023 33.8963 89.1024 34.6962C88.3026 35.3961 87.3027 35.7961 86.2029 35.7961Z" fill="white"/>
<path d="M117.699 19.6983C117.099 19.1984 116.399 18.8984 115.599 18.8984C114.499 18.8984 113.699 19.2984 113.199 19.9983C111.8 19.2984 110.2 18.8984 108.5 18.8984H108.3C105.501 18.8984 103.101 19.7983 101.101 21.5981C99.1014 23.3978 98.1016 25.5975 98.1016 28.0971V31.9966C98.1016 34.5962 99.1014 36.6959 101.101 38.4957C103.101 40.2954 105.501 41.1953 108.3 41.1953H108.5C110.2 41.1953 111.8 40.7954 113.199 40.0955C113.699 40.7954 114.599 41.1953 115.599 41.1953C116.399 41.1953 117.199 40.8954 117.699 40.3954C118.299 39.8955 118.599 39.1956 118.599 38.3957V21.698C118.599 20.8982 118.199 20.1983 117.699 19.6983ZM108.4 35.7961H108.2C107 35.7961 106.1 35.3961 105.301 34.6962C104.501 33.9963 104.101 33.0964 104.101 31.9966V28.0971C104.101 26.9973 104.501 26.1974 105.301 25.3975C106.1 24.6976 107.1 24.2977 108.2 24.2977H108.4C109.6 24.2977 110.5 24.6976 111.3 25.3975C112.1 26.0974 112.5 26.9973 112.5 28.0971V31.9966C112.5 32.9965 112.1 33.8963 111.3 34.6962C110.5 35.3961 109.6 35.7961 108.4 35.7961Z" fill="white"/>
<path d="M181.667 0.5H141.334V40.7653C141.334 50.8564 149.559 59.1666 159.667 59.1666H181.568C191.676 59.1666 200 50.8564 200 40.7653V18.9013C200.099 8.81028 191.775 0.5 181.667 0.5Z" fill="#EF4237"/>
<path d="M183.988 24.5979H179.889H177.589L173.39 17.5989C173.09 17.099 172.39 16.899 171.79 17.1989L171.29 17.4989C170.79 17.7989 170.59 18.4988 170.89 19.0987L172.79 22.1982L174.19 24.5979L176.189 27.8975C175.989 27.6975 175.689 27.4975 175.489 27.2975L173.29 24.5979H167.191L164.991 27.2975C164.791 27.4975 164.591 27.7975 164.291 27.8975L166.291 24.5979L167.69 22.1982L169.59 19.0987C169.89 18.5988 169.79 17.7989 169.19 17.4989L168.69 17.1989C168.19 16.899 167.391 16.999 167.091 17.5989L162.891 24.5979H160.591H156.492C155.992 24.5979 155.492 25.0978 155.492 25.5978L155.592 27.4975C155.592 27.9974 156.092 28.2974 156.592 28.2974H157.092L158.792 39.1959C159.292 41.2956 160.691 41.2956 162.691 41.2956H178.489C180.389 41.2956 181.289 41.0956 181.888 39.0959L183.588 28.3974H184.088C184.588 28.3974 185.088 27.9974 185.088 27.5975V25.4978C185.088 24.9979 184.488 24.5979 183.988 24.5979ZM162.991 26.1977C163.191 25.8977 163.591 25.7977 163.891 25.9977C164.191 26.1977 164.291 26.5976 164.091 26.8976C163.891 27.1975 163.491 27.2975 163.191 27.0976C162.991 26.7976 162.791 26.4976 162.991 26.1977ZM163.691 38.396H163.191C162.691 38.396 162.291 38.096 162.291 37.7961L160.991 30.3971C160.891 29.8972 161.291 29.2973 161.891 29.2973H162.391C162.991 29.2973 163.491 29.6972 163.591 30.1971L164.591 37.7961C164.491 38.196 164.191 38.396 163.691 38.396ZM168.39 38.396H167.89C167.391 38.396 166.991 38.096 166.991 37.7961L166.391 30.1971C166.391 29.6972 166.791 29.2973 167.291 29.2973H167.79C168.39 29.2973 168.89 29.6972 168.89 30.1971L169.19 37.7961C169.29 38.196 168.89 38.396 168.39 38.396ZM173.99 37.7961C173.99 38.196 173.49 38.396 173.09 38.396H172.59C172.09 38.396 171.69 38.096 171.69 37.7961L171.79 30.1971C171.79 29.6972 172.29 29.2973 172.89 29.2973H173.39C173.99 29.2973 174.39 29.6972 174.39 30.1971L173.99 37.7961ZM177.589 26.1977C177.789 26.4976 177.689 26.8976 177.389 27.0976C177.089 27.2975 176.689 27.0976 176.489 26.8976C176.289 26.5976 176.389 26.1977 176.689 25.9977C176.989 25.6978 177.389 25.7977 177.589 26.1977ZM179.789 30.3971L178.689 37.7961C178.589 38.196 178.289 38.396 177.789 38.396H177.189C176.689 38.396 176.289 38.096 176.389 37.7961L177.189 30.1971C177.289 29.6972 177.789 29.2973 178.389 29.2973H178.889C179.489 29.2973 179.889 29.8972 179.789 30.3971Z" fill="white"/>
</g>
<defs>
<clipPath id="clip0_1231_2558">
<rect width="200" height="59" fill="white" transform="translate(0 0.5)"/>
</clipPath>
</defs>
</svg>
