<svg width="64" height="46" viewBox="0 0 64 46" fill="none" xmlns="http://www.w3.org/2000/svg">
<path d="M50 14L32 32M32 14L50 32M56 2H23L2 23L23 44H56C57.5913 44 59.1174 43.3679 60.2426 42.2426C61.3679 41.1174 62 39.5913 62 38V8C62 6.4087 61.3679 4.88258 60.2426 3.75736C59.1174 2.63214 57.5913 2 56 2Z" stroke="#EF4237" stroke-width="3" stroke-linecap="round" stroke-linejoin="round"/>
</svg>
